<?xml version="1.0" encoding="UTF-8"?>
<!DOCTYPE svg PUBLIC "-//W3C//DTD SVG 1.1//EN" "http://www.w3.org/Graphics/SVG/1.1/DTD/svg11.dtd">
<!-- Creator: CorelDRAW 2018 (64-Bit Evaluation Version) -->
<svg xmlns="http://www.w3.org/2000/svg" xml:space="preserve" width="64.1485mm" height="68.1578mm" version="1.1" style="shape-rendering:geometricPrecision; text-rendering:geometricPrecision; image-rendering:optimizeQuality; fill-rule:evenodd; clip-rule:evenodd"
viewBox="0 0 5577.84 5926.46"
 xmlns:xlink="http://www.w3.org/1999/xlink">
 <defs>
  <style type="text/css">
   <![CDATA[
    .fil0 {fill:black}
   ]]>
  </style>
 </defs>
 <g id="Layer_x0020_1">
  <metadata id="CorelCorpID_0Corel-Layer"/>
  <path class="fil0" d="M4837.98 3445.52l-87.2 14.44 -0.09 812.85c-353.42,139.02 -410.3,219.28 -889.84,354.22 -1017.01,286.19 -2145.15,170.92 -3010.62,-359.82l0 -807.25c-63.81,0 -54.29,7.44 -97.35,-14.44 -33.04,50.41 -19.41,140.97 -19.03,201.75l0.06 697.32c621.19,328.69 1247.9,568.81 1981.62,568.81l0 366.95c-96.27,46.21 -224.88,92.95 -238.54,256.86l-2476.99 0 0 128.45 2476.99 0c18.96,227.83 341.84,352.98 528.27,179.63 91.18,-84.78 63.47,-74.47 113.93,-179.63l2458.65 0 0 -128.45 -2458.65 0c-39.05,-81.33 -96.73,-242.01 -275.21,-256.86l0 -366.95c545.37,0 1086.83,-161.18 1585.92,-358.98l450.71 -209.82 2.16 -809.01c-6.47,-95.67 16.51,-55.09 -44.79,-90.06zm-2528.39 695.19l230.91 -2.76 0.76 -205.63 -230.59 -9.51 -1.08 217.9zm-0.85 -1044.47l232.52 -2.97 -0.35 -206.16 -228.94 -8.93 -3.23 218.06zm368.96 1044.47l230.65 -2.44 0.95 -206.99 -230.67 -8.3 -0.92 217.73zm-0.81 -1044.47l232.36 -2.62 -0.3 -207.56 -229.01 -7.7 -3.04 217.88zm368.89 1044.47l230.57 -2.1 1.04 -208.42 -230.69 -7.05 -0.92 217.57zm-0.77 -1044.47l232.26 -2.28 -0.3 -208.8 -229.1 -6.68 -2.85 217.75zm-367.9 -1044.45l167.03 1.63 65.6 -9.82 -2.57 -206.51 -226.67 -2.18 -3.39 69.35 0 147.52zm368.09 0l165.85 1.39 66.83 -8.37 -2.79 -208.02 -226.71 -1.86 -3.18 69.34 0 147.52zm-736.77 0l168.82 1.86 64.43 -11.19 -2.35 -205.08 -226.81 -2.47 -3.6 69.35 -0.5 147.52zm-1556.16 1120.21c268.57,97.67 377.41,222.23 901.98,380.28 749.91,225.89 1514.98,220.75 2265.27,-3.2 470.85,-140.55 709.17,-302.51 924.41,-372.37 62.79,-60.75 36.68,-293.17 36.68,-446.77l2.38 -369.62c-3.78,-94.87 15.88,-76.61 -39.06,-85.73l-92.47 1.61 -0.68 784.01c-52.53,110.05 -701.68,327.43 -869.37,376.67 -724.93,212.9 -1451.03,225.07 -2176.76,10.72 -197.62,-58.36 -730.89,-259.66 -853.85,-369.04l-7.19 -802.24 -91.33 -0.5c-32.79,43.48 -18.77,140.7 -18.43,197.15l18.43 699.02zm0 -1183.2c125.52,43.71 298.75,151.67 437.66,211.36 1084.27,465.75 2110.83,430.88 3197.22,-0.59 149.04,-59.19 319.7,-162.56 456.78,-206.89 57.92,-25.47 37.64,-108.57 36.83,-198.34l2.04 -625.69c-6.56,-96.22 16.49,-55.44 -45.61,-90.07l-86.4 13.87 -0.23 812.56c-131.82,50.15 -279.93,134.08 -427.23,194.19 -482.16,196.81 -993.34,316.9 -1534.41,319.93 -712.34,4.01 -1429.33,-219.1 -1938.7,-519.21l-0.17 -805.45 -91.66 -15.89c-50.45,59.63 -24.49,374.75 -24.49,458.72 0,123.71 -35.07,365.29 18.36,451.51zm1661.98 -1849.06c703.73,-53.6 1657.61,19.76 2171.23,352.89 406.21,263.51 78.4,520.49 -258.69,655.84 -310.07,124.45 -704.1,190.79 -1068.23,219.21 -1698.63,132.58 -3157.61,-534.67 -1926.51,-1012.26 326.23,-126.56 702.49,-186.77 1082.2,-215.69zm-1661.98 668.51c97.64,164.05 55.89,186.18 310.28,345.18 744.5,465.39 2901.31,467.49 3602.54,-51.99 79.55,-58.92 113.74,-119.95 178.83,-165.58 43.42,-92.83 80.37,-167.57 30.22,-291.05 -155.02,-381.64 -890.03,-533.86 -1265.06,-588.22 -333.6,-48.37 -283.55,-24.99 -507.28,-43.17 -510.71,-41.55 -1094.62,16.26 -1520.14,133.16 -336.45,92.46 -829.41,235.39 -829.41,661.67z"/>
 </g>
</svg>
